<?xml version="1.0" encoding="utf-8"?>
<TestRecord xmlns:xsi="http://www.w3.org/2001/XMLSchema-instance" xmlns:xsd="http://www.w3.org/2001/XMLSchema">
  <Results>
    <UnitTestResult>
      <TestDate>2015-02-09T15:53:15</TestDate>
      <Passed>1</Passed>
      <Errors>0</Errors>
      <Failures>2</Failures>
      <Inconclusive>0</Inconclusive>
      <NotRunnable>0</NotRunnable>
      <Skipped>0</Skipped>
      <Ignored>0</Ignored>
      <Time />
    </UnitTestResult>
    <UnitTestResult>
      <TestDate>2015-02-09T15:54:01</TestDate>
      <Passed>2</Passed>
      <Errors>0</Errors>
      <Failures>1</Failures>
      <Inconclusive>0</Inconclusive>
      <NotRunnable>0</NotRunnable>
      <Skipped>0</Skipped>
      <Ignored>0</Ignored>
      <Time />
    </UnitTestResult>
    <UnitTestResult>
      <TestDate>2015-02-09T15:56:53</TestDate>
      <Passed>2</Passed>
      <Errors>0</Errors>
      <Failures>1</Failures>
      <Inconclusive>0</Inconclusive>
      <NotRunnable>0</NotRunnable>
      <Skipped>0</Skipped>
      <Ignored>0</Ignored>
      <Time />
    </UnitTestResult>
    <UnitTestResult>
      <TestDate>2015-02-09T15:57:23</TestDate>
      <Passed>2</Passed>
      <Errors>0</Errors>
      <Failures>1</Failures>
      <Inconclusive>0</Inconclusive>
      <NotRunnable>0</NotRunnable>
      <Skipped>0</Skipped>
      <Ignored>0</Ignored>
      <Time />
    </UnitTestResult>
    <UnitTestResult>
      <TestDate>2015-02-09T15:58:04</TestDate>
      <Passed>3</Passed>
      <Errors>0</Errors>
      <Failures>0</Failures>
      <Inconclusive>0</Inconclusive>
      <NotRunnable>0</NotRunnable>
      <Skipped>0</Skipped>
      <Ignored>0</Ignored>
      <Time />
    </UnitTestResult>
    <UnitTestResult>
      <TestDate>2015-02-09T16:02:04</TestDate>
      <Passed>3</Passed>
      <Errors>0</Errors>
      <Failures>0</Failures>
      <Inconclusive>0</Inconclusive>
      <NotRunnable>0</NotRunnable>
      <Skipped>0</Skipped>
      <Ignored>0</Ignored>
      <Time />
    </UnitTestResult>
    <UnitTestResult>
      <TestDate>2015-02-09T16:14:59</TestDate>
      <Passed>2</Passed>
      <Errors>0</Errors>
      <Failures>1</Failures>
      <Inconclusive>0</Inconclusive>
      <NotRunnable>0</NotRunnable>
      <Skipped>0</Skipped>
      <Ignored>0</Ignored>
      <Time />
    </UnitTestResult>
  </Results>
</TestRecord>